657946 669510 442
56901 373525 443
935273 224432 525
668902 663592 442
358277 771202 509
841385 566475 525
934506 364710 525
235989 540488 470
696183 587393 509
84923 63110 351
261919 234412 368
101913 181528 383
390432 672640 509
755033 664349 504
403234 258921 441
563781 615513 447
665272 883982 525
724553 374075 509
135649 972330 525
988310 337848 525
743154 871155 525
15070 893313 525
638452 675265 442
166534 545137 470
86539 400313 443
75805 102594 351
79510 27211 351
786358 872852 525
36253 192408 383
44361 99920 351
89648 722433 509
886122 660249 525
659377 342440 509
807684 862705 525
655836 99032 509
934674 83901 525
605667 671276 509
306598 280714 389
461999 826154 509
351469 423975 449
994663 285581 525
700748 595082 509
323513 972370 525
90337 340110 443
132415 797806 509
985359 891653 507
292995 144677 443
347174 307642 441
174747 214454 373
234612 587062 470
948430 473454 525
679485 358197 509
894444 825585 525
800060 885715 525
378723 40079 443
73118 37647 340
913052 529322 525
786549 17436 509
534618 219940 470
170183 642900 509
685318 826128 504
43942 127101 354
662483 451725 509
763223 997796 525
300644 364879 441
736157 422531 509
47485 581866 470
149619 506670 449
212322 712214 509
265033 241736 407
323203 663563 509
195618 521110 470
565848 503696 470
97544 716099 509
736494 663242 504
158453 396241 443
308129 556700 470
206516 908704 525
443737 982840 525
741304 559077 509
649101 718086 504
969582 444116 525
863594 332768 525
251824 809803 509
847281 482799 525
74967 781254 509
957415 788964 525
476798 189638 449
12950 953892 525
478159 522635 470
313775 978942 525
393910 183301 443
775261 68510 509
229864 885065 525
204049 124788 383
209042 735571 509
180266 320095 443
793358 633898 504
838970 513707 525
633481 218780 509
407651 294455 441
449297 701712 509
109603 298995 443
228595 546205 470
656097 498663 509
382296 291912 441
479473 159304 449
942 25927 282
110926 995891 525
726417 261104 509
906319 812806 525
851755 169777 525
113783 707120 509
110525 486439 449
671050 479331 509
574965 983081 525
722535 676307 504
622822 628584 509
693802 67187 509
923706 641772 525
164398 934831 525
155086 582468 470
37403 734825 509
223045 199621 386
885054 462395 525
351994 185793 443
128501 884468 525
632058 510142 509
216359 120803 383
10334 623142 470
35679 353448 443
195516 819471 509
148614 11563 375
119056 502815 449
244298 130770 443
952897 996514 458
212235 243389 443
46138 528988 470
5636 662625 509
642457 257356 509
823000 45540 509
753407 939446 525
962342 381223 525
943270 639484 525
226445 106026 386
772504 659409 504
762769 247561 509
768259 235895 509
552760 333629 470
119346 998695 525
188050 862095 525
338078 904640 525
111435 59895 354
328827 330775 353
787682 155839 509
188515 891947 525
632491 564411 509
600658 961670 525
535574 593956 452
153720 893126 525
398640 384236 436
97993 572147 470
188458 193780 360
910439 58293 525
76538 378093 443
297840 52705 443
966005 869822 507
279111 400969 441
515279 776989 509
388702 878012 525
807241 908048 525
382575 824796 509
514004 769247 509
102227 809598 509
204737 520402 470
606796 702775 509
359158 220815 443
838138 290076 525
219208 23921 386
997134 886464 507
415533 546937 470
264377 694129 509
403693 339445 441
678239 467449 509
534981 906249 525
933046 906728 476
967043 349221 525
941807 727585 525
472733 853893 525
37077 737341 509
148495 671431 509
832071 165342 509
245583 143459 443
819564 98641 509
750623 963724 525
995032 486609 525
758064 174980 509
50098 611838 470
316731 458562 449
496475 984907 525
379528 63045 443
948285 963421 414
740490 745227 362
461187 802918 509
825641 816035 450
693410 812615 504
384533 563935 470
555116 281116 470
375286 553803 470
521395 289058 470
233197 434773 449
59823 348479 443
93019 488710 449
518146 894609 525
70351 482514 449
511966 62198 470
35034 222514 386
908806 535183 525
449500 97750 449
645227 591799 509
811335 166418 509
255601 68252 443
800431 9476 509
530255 272242 470
172872 624942 470
225343 396082 443
98457 790885 509
812107 597069 509
614074 757010 509
165098 926484 525
701889 583691 509
876125 106781 525
23140 650484 509
898922 90212 525
886847 757119 525
39535 636442 509
953829 80486 525
160518 574447 470
908241 323346 525
476594 842674 525
76519 886937 525
655944 922098 525
421903 890941 525
600896 234809 470
111969 630338 509
976543 875115 507
147992 385884 443
819672 775009 468
61365 80346 351
169649 91402 383
